{
    "total": 30 ,
    "per_page": 3 ,
    "pages" : 10 ,
    "page" : 1 ,
    "items" : [
        {"id" : 1 , "name":"test-name-1"} ,
        {"id" : 2 , "name":"test-name-2"} ,
        {"id" : 3 , "name":"test-name-3"}
    ]
}